…
+                              pref=地域,
+                              year=`時間軸（2009～2019）`,
+                              type=表章項目) %>%
+                       select(sex,age,year,pref,company_size,company_type,type,unit,value,annotation),
+                   wage2020_2022 %>%
+                       rename(sex=性別_基本,
+                              age=年齢階級_基本,
+                              company_size=企業規模_基本,
+                              company_type=産業分類,
+                              pref=地域,
+                              year=`時間軸（2020～2023）`,
+                              type=表章項目) %>%
+                       select(sex,age,year,pref,company_size,company_type,type,unit,value,annotation))
> wage
# A tibble: 58,656 × 10
   sex    age      year   pref   company_size           company_type type  unit  value annotation
   <chr>  <chr>    <chr>  <chr>  <chr>                  <chr>        <chr> <chr> <dbl> <chr>     
 1 男女計 20～24歳 2019年 北海道 企業規模計（10人以上） Ｔ１ 産業計  年齢  歳     23   NA        
 2 男女計 20～24歳 2018年 北海道 企業規模計（10人以上） Ｔ１ 産業計  年齢  歳     22.9 NA        
 3 男女計 20～24歳 2017年 北海道 企業規模計（10人以上） Ｔ１ 産業計  年齢  歳     22.9 NA        
 4 男女計 20～24歳 2016年 北海道 企業規模計（10人以上） Ｔ１ 産業計  年齢  歳     22.8 NA        
 5 男女計 20～24歳 2015年 北海道 企業規模計（10人以上） Ｔ１ 産業計  年齢  歳     22.9 NA        
 6 男女計 20～24歳 2014年 北海道 企業規模計（10人以上） Ｔ１ 産業計  年齢  歳     22.8 NA        
 7 男女計 20～24歳 2013年 北海道 企業規模計（10人以上） Ｔ１ 産業計  年齢  歳     22.9 NA        
 8 男女計 20～24歳 2012年 北海道 企業規模計（10人以上） Ｔ１ 産業計  年齢  歳     22.9 NA        
 9 男女計 20～24歳 2011年 北海道 企業規模計（10人以上） Ｔ１ 産業計  年齢  歳     23.1 NA        
10 男女計 20～24歳 2010年 北海道 企業規模計（10人以上） Ｔ１ 産業計  年齢  歳     22.9 NA        
# ℹ 58,646 more rows
# ℹ Use `print(n = ...)` to see more rows
> wage %>% distinct(company_size)
# A tibble: 4 × 1
  company_size          
  <chr>                 
1 企業規模計（10人以上）
2 1,000人以上           
3 100～999人            
4 10～99人              
> wage %>% distinct(company_type)
# A tibble: 1 × 1
  company_type
  <chr>       
1 Ｔ１ 産業計 
> wage
# A tibble: 58,656 × 10
   sex    age      year   pref   company_size           company_type type  unit  value annotation
   <chr>  <chr>    <chr>  <chr>  <chr>                  <chr>        <chr> <chr> <dbl> <chr>     
 1 男女計 20～24歳 2019年 北海道 企業規模計（10人以上） Ｔ１ 産業計  年齢  歳     23   NA        
 2 男女計 20～24歳 2018年 北海道 企業規模計（10人以上） Ｔ１ 産業計  年齢  歳     22.9 NA        
 3 男女計 20～24歳 2017年 北海道 企業規模計（10人以上） Ｔ１ 産業計  年齢  歳     22.9 NA        
 4 男女計 20～24歳 2016年 北海道 企業規模計（10人以上） Ｔ１ 産業計  年齢  歳     22.8 NA        
 5 男女計 20～24歳 2015年 北海道 企業規模計（10人以上） Ｔ１ 産業計  年齢  歳     22.9 NA        
 6 男女計 20～24歳 2014年 北海道 企業規模計（10人以上） Ｔ１ 産業計  年齢  歳     22.8 NA        
 7 男女計 20～24歳 2013年 北海道 企業規模計（10人以上） Ｔ１ 産業計  年齢  歳     22.9 NA        
 8 男女計 20～24歳 2012年 北海道 企業規模計（10人以上） Ｔ１ 産業計  年齢  歳     22.9 NA        
 9 男女計 20～24歳 2011年 北海道 企業規模計（10人以上） Ｔ１ 産業計  年齢  歳     23.1 NA        
10 男女計 20～24歳 2010年 北海道 企業規模計（10人以上） Ｔ１ 産業計  年齢  歳     22.9 NA        
# ℹ 58,646 more rows
# ℹ Use `print(n = ...)` to see more rows
…
+     scale_color_manual(values = c("1都3県" = "blue", "九州" = "red", "else" = "gray")) +
+     labs(title="20~24歳女性の都道府県別平均給与")
> wage %>% mutate(year=as.double(str_sub(year,1,4))) %>%
+     mutate(area=ifelse(pref %in% c("東京都","埼玉県","神奈川県","千葉県"),"2",
+                        ifelse(pref %in% c("福岡県","大分県","宮崎県","佐賀県","長崎県","熊本県","鹿児島県"),"3",
+                               "1"))) %>%
+     filter(sex=="男女計",
+            company_size=="企業規模計（10人以上）",
+            company_type=="Ｔ１ 産業計",
+            type %in% c("きまって支給する現金給与額","年間賞与その他特別給与額")) %>%
+     select(year,pref,type,unit,value,area) %>% 
+     pivot_wider(names_from = type,values_from = value) %>% 
+     mutate(yearly_income=(きまって支給する現金給与額*12+年間賞与その他特別給与額)/10) %>% 
+     select(year,pref,area,yearly_income) 
# A tibble: 611 × 4
    year pref   area  yearly_income
   <dbl> <chr>  <chr>         <dbl>
 1  2019 北海道 1              303.
 2  2018 北海道 1              302.
 3  2017 北海道 1              285.
 4  2016 北海道 1              281.
 5  2015 北海道 1              282.
 6  2014 北海道 1              266.
 7  2013 北海道 1              260.
 8  2012 北海道 1              255.
 9  2011 北海道 1              263.
10  2010 北海道 1              268.
# ℹ 601 more rows
# ℹ Use `print(n = ...)` to see more rows
> wage %>% mutate(year=as.double(str_sub(year,1,4))) %>%
+     mutate(area=ifelse(pref %in% c("東京都","埼玉県","神奈川県","千葉県"),"1都3県",
+                        ifelse(pref %in% c("福岡県","大分県","宮崎県","佐賀県","長崎県","熊本県","鹿児島県"),"九州",
+                               "その他"))) %>%
+     filter(sex=="男女計",
+            company_size=="企業規模計（10人以上）",
+            company_type=="Ｔ１ 産業計",
+            type %in% c("きまって支給する現金給与額","年間賞与その他特別給与額")) %>%
+     select(year,pref,type,unit,value,area) %>% 
+     pivot_wider(names_from = type,values_from = value) %>% 
+     mutate(yearly_income=(きまって支給する現金給与額*12+年間賞与その他特別給与額)/10) %>% 
+     select(year,pref,area,yearly_income) 
# A tibble: 611 × 4
    year pref   area   yearly_income
   <dbl> <chr>  <chr>          <dbl>
 1  2019 北海道 その他          303.
 2  2018 北海道 その他          302.
 3  2017 北海道 その他          285.
 4  2016 北海道 その他          281.
 5  2015 北海道 その他          282.
 6  2014 北海道 その他          266.
 7  2013 北海道 その他          260.
 8  2012 北海道 その他          255.
 9  2011 北海道 その他          263.
10  2010 北海道 その他          268.
# ℹ 601 more rows
# ℹ Use `print(n = ...)` to see more rows
…
+     filter(is.na(city), pref!="合計", age %in% c("a20_24","a25_29")) %>%               # 都道府県別にみた20～24歳のデータにしぼる
+     pivot_wider(names_from=sex,values_from = population) %>%
+     mutate(fmrate20_24=100*female/all,
+            color = ifelse(pref %in% c("東京都","鹿児島県"), pref, "Other")) %>%
+     ggplot(aes(year,fmrate20_24,group=pref,color=color)) +
+     geom_line()+
+     scale_color_manual(values = c("東京都" = "blue","鹿児島県" = "red", "Other" = "gray")) +
+     labs(title = "20~24歳人口に占める女性比率",
+          subtitle = "赤が鹿児島県、青が東京都。その他はグレーで表示",
+          x = "年", y = "女性比率(％)") +
+     theme_minimal()+
+     theme(legend.position = "none") 
> pop %>%
+     filter(is.na(city), pref!="合計", age %in% c("a20_24","a25_29"))
# A tibble: 8,460 × 7
    year code   pref   city  sex    age    population
   <dbl> <chr>  <chr>  <chr> <chr>  <chr>       <dbl>
 1  1995 010006 北海道 NA    all    a20_24     415693
 2  1995 010006 北海道 NA    all    a25_29     362692
 3  1995 010006 北海道 NA    male   a20_24     207697
 4  1995 010006 北海道 NA    male   a25_29     175221
 5  1995 010006 北海道 NA    female a20_24     207996
 6  1995 010006 北海道 NA    female a25_29     187471
 7  1995 020001 青森県 NA    all    a20_24      90070
 8  1995 020001 青森県 NA    all    a25_29      85581
 9  1995 020001 青森県 NA    male   a20_24      45426
10  1995 020001 青森県 NA    male   a25_29      42228
# ℹ 8,450 more rows
# ℹ Use `print(n = ...)` to see more rows
…
ℹ In group 1: `year = 1995`, `pref = "三重県"`, `sex = "all"`.
Caused by error:
! object 'female' not found
Run `rlang::last_trace()` to see where the error occurred.
> pop %>%
+     filter(is.na(city), pref!="合計", age %in% c("a20_24","a25_29")) %>% group_by(year,pref,sex) %>% summarize(female=sum(female),all=sum(all)) 
Error in `summarize()`:
ℹ In argument: `female = sum(female)`.
ℹ In group 1: `year = 1995`, `pref = "三重県"`, `sex = "all"`.
Caused by error:
! object 'female' not found
Run `rlang::last_trace()` to see where the error occurred.
> pop %>%
+     filter(is.na(city), pref!="合計", age %in% c("a20_24","a25_29")) %>% group_by(year,pref,sex)
# A tibble: 8,460 × 7
# Groups:   year, pref, sex [4,230]
    year code   pref   city  sex    age    population
   <dbl> <chr>  <chr>  <chr> <chr>  <chr>       <dbl>
 1  1995 010006 北海道 NA    all    a20_24     415693
 2  1995 010006 北海道 NA    all    a25_29     362692
 3  1995 010006 北海道 NA    male   a20_24     207697
 4  1995 010006 北海道 NA    male   a25_29     175221
 5  1995 010006 北海道 NA    female a20_24     207996
 6  1995 010006 北海道 NA    female a25_29     187471
 7  1995 020001 青森県 NA    all    a20_24      90070
 8  1995 020001 青森県 NA    all    a25_29      85581
 9  1995 020001 青森県 NA    male   a20_24      45426
10  1995 020001 青森県 NA    male   a25_29      42228
# ℹ 8,450 more rows
# ℹ Use `print(n = ...)` to see more rows
…
